…
---

    Code
      derived
    Output
      # A tibble: 300 x 5
         term         estimate lower upper svalue
         <term>          <dbl> <dbl> <dbl>  <dbl>
       1 eDensity[1]      5.71  4.82  6.66   8.97
       2 eDensity[2]      5.71  4.82  6.66   8.97
       3 eDensity[3]      5.71  4.82  6.66   8.97
       4 eDensity[4]      5.71  4.82  6.66   8.97
       5 eDensity[5]      5.71  4.82  6.66   8.97
       6 eDensity[6]      4.63  3.81  5.53   8.97
       7 eDensity[7]      4.63  3.81  5.53   8.97
       8 eDensity[8]      4.63  3.81  5.53   8.97
       9 eDensity[9]      4.63  3.81  5.53   8.97
      10 eDensity[10]     4.63  3.81  5.53   8.97
      # i 290 more rows
…
---

    Code
      year
    Output
      # A tibble: 30 x 10
         Site  HabitatQuality  Year Visit  Density YearFactor estimate   lower  upper
         <fct> <fct>          <dbl> <int>    <dbl> <fct>         <dbl>   <dbl>  <dbl>
       1 Site1 High           2001      3 1135466. 2001         0.0126 0.00309 0.0295
       2 Site1 High           2001.     3 1135466. 2001         0.0165 0.00427 0.0378
       3 Site1 High           2002.     3 1135466. 2001         0.0216 0.00595 0.0479
       4 Site1 High           2002.     3 1135466. 2001         0.0284 0.00828 0.0605
       5 Site1 High           2002.     3 1135466. 2001         0.0371 0.0115  0.0765
       6 Site1 High           2003.     3 1135466. 2001         0.0491 0.0160  0.0985
       7 Site1 High           2003.     3 1135466. 2001         0.0642 0.0222  0.127 
       8 Site1 High           2003.     3 1135466. 2001         0.0831 0.0307  0.164 
       9 Site1 High           2003.     3 1135466. 2001         0.108  0.0428  0.211 
      10 Site1 High           2004.     3 1135466. 2001         0.139  0.0583  0.277 
      # i 20 more rows
      # i 1 more variable: svalue <dbl>
…
      nchains:  2 
      niters:  250 
      
      $data
      # A tibble: 180 x 6
         Site  HabitatQuality  Year Visit  Density YearFactor
         <fct> <fct>          <dbl> <int>    <dbl> <fct>     
       1 Site1 High           2001      3 1135466. 2001      
       2 Site1 High           2001.     3 1135466. 2001      
       3 Site1 High           2002.     3 1135466. 2001      
       4 Site1 High           2002.     3 1135466. 2001      
       5 Site1 High           2002.     3 1135466. 2001      
       6 Site1 High           2003.     3 1135466. 2001      
       7 Site1 High           2003.     3 1135466. 2001      
       8 Site1 High           2003.     3 1135466. 2001      
       9 Site1 High           2003.     3 1135466. 2001      
      10 Site1 High           2004.     3 1135466. 2001      
      # i 170 more rows
…
