…
---

    Code
      derived
    Output
      # A tibble: 300 x 5
         term         estimate lower upper svalue
         <term>          <dbl> <dbl> <dbl>  <dbl>
       1 eDensity[1]      5.73  4.87  6.66   8.97
       2 eDensity[2]      5.73  4.87  6.66   8.97
       3 eDensity[3]      5.73  4.87  6.66   8.97
       4 eDensity[4]      5.73  4.87  6.66   8.97
       5 eDensity[5]      5.73  4.87  6.66   8.97
       6 eDensity[6]      4.61  3.72  5.53   8.97
       7 eDensity[7]      4.61  3.72  5.53   8.97
       8 eDensity[8]      4.61  3.72  5.53   8.97
       9 eDensity[9]      4.61  3.72  5.53   8.97
      10 eDensity[10]     4.61  3.72  5.53   8.97
      # i 290 more rows
…
---

    Code
      year
    Output
      # A tibble: 30 x 10
         Site  HabitatQuality  Year Visit  Density YearFactor estimate   lower  upper
         <fct> <fct>          <dbl> <int>    <dbl> <fct>         <dbl>   <dbl>  <dbl>
       1 Site1 High           2001      3 1135466. 2001         0.0124 0.00234 0.0503
       2 Site1 High           2001.     3 1135466. 2001         0.0165 0.00320 0.0599
       3 Site1 High           2002.     3 1135466. 2001         0.0217 0.00437 0.0719
       4 Site1 High           2002.     3 1135466. 2001         0.0283 0.00597 0.0882
       5 Site1 High           2002.     3 1135466. 2001         0.0373 0.00817 0.107 
       6 Site1 High           2003.     3 1135466. 2001         0.0489 0.0112  0.135 
       7 Site1 High           2003.     3 1135466. 2001         0.0649 0.0153  0.165 
       8 Site1 High           2003.     3 1135466. 2001         0.0855 0.0209  0.201 
       9 Site1 High           2003.     3 1135466. 2001         0.113  0.0286  0.255 
      10 Site1 High           2004.     3 1135466. 2001         0.149  0.0387  0.330 
      # i 20 more rows
      # i 1 more variable: svalue <dbl>
…
      nchains:  2 
      niters:  250 
      
      $data
      # A tibble: 180 x 6
         Site  HabitatQuality  Year Visit  Density YearFactor
         <fct> <fct>          <dbl> <int>    <dbl> <fct>     
       1 Site1 High           2001      3 1135466. 2001      
       2 Site1 High           2001.     3 1135466. 2001      
       3 Site1 High           2002.     3 1135466. 2001      
       4 Site1 High           2002.     3 1135466. 2001      
       5 Site1 High           2002.     3 1135466. 2001      
       6 Site1 High           2003.     3 1135466. 2001      
       7 Site1 High           2003.     3 1135466. 2001      
       8 Site1 High           2003.     3 1135466. 2001      
       9 Site1 High           2003.     3 1135466. 2001      
      10 Site1 High           2004.     3 1135466. 2001      
      # i 170 more rows
…
